<svg xmlns="http://www.w3.org/2000/svg" version="1.1" xmlns:xlink="http://www.w3.org/1999/xlink"
    xmlns:svgjs="http://svgjs.com/svgjs" x="0" y="0" viewBox="0 0 468 468"
    style="enable-background:new 0 0 512 512" xml:space="preserve"><g><g><g><g><g><path d="m56.695 0h411.063v350.94h-411.063z" fill="#f5f5f5" data-original="#f5f5f5"></path><path
    d="m68.819 237.975v-237.975h-12.124v350.94h411.062v-12.103h-298.076c-55.705 0-100.862-45.158-100.862-100.862z"
    fill="#e5e5e5"></path></g><path d="m56.695 0h411.063v50.935h-411.063z" fill="#ff5a96"></path><path
    d="m402.192 27.467h-268.697c-1.104 0-2-.896-2-2s.896-2 2-2h268.697c1.104 0 2 .896 2 2s-.895 2-2 2z"
    fill="#ffffff"></path><g><path d="m56.695 0h12.124v50.935h-12.124z" fill="#ff2488" data-original="#ff2488"></path></g></g><g><g><g><path d="m286.372 208.524c3.718-3.957 11.186-11.661 20.42-19.899l10.535-24.7-27.042-3.01c-9.938 8.515-19.047 17.967-16.369 15.536-4.022 3.627-38.444 40.308-42.296 44.397 0 0-21.938 21.167-36.871 31.191l24.432 4.406-8.164 22.829c7.228-4.728 14.761-10.435 22.635-17.15 11.699-9.978 21.491-19.914 26.703-25.41l16.504-18.391c1.999-2.146 5.291-5.61 9.513-9.799z" fill="#ff5a96" data-original="#ff5a96"></path><path
    d="m314.345 170.445-15.631 11.973c-8.704 7.877-15.719 15.114-19.298 18.918-4.291 4.262-7.618 7.762-9.66 9.957l-16.532 18.42c-4.223 4.45-12.238 12.624-21.953 21.208l-14.381 11.461-5.871 16.419c7.228-4.728 14.761-10.435 22.635-17.15 11.699-9.978 21.491-19.914 26.703-25.41l16.504-18.391c1.998-2.146 5.291-5.61 9.512-9.8 2.55-2.713 6.863-7.189 12.299-12.39l9.97-11.844z"
    fill="#ff2488" data-original="#ff2488"></path></g><g><path d="m161.137 157.792c.619-.021 1.236-.047 1.86-.047 20.428 0 49.475 25.321 65.629 41.141l-7.628-24.823 27.425-.179c-4.34-4.172-9.345-8.784-14.77-13.411-27.137-23.143-50.249-34.394-70.656-34.394-3.317 0-6.589.195-9.809.563l-17.101 20.569z" fill="#ffce03" data-original="#ffce03"></path>
    <path
        d="m162.486 135.253c17.998 0 39.049 10.492 64.356 32.075 2.43 2.072 4.778 4.147 7.018 6.179l14.564-.095c-4.34-4.172-9.345-8.784-14.77-13.411-27.137-23.144-50.249-34.394-70.656-34.394-3.317 0-6.588.195-9.808.563l-9.503 11.431c6.012-1.532 12.312-2.348 18.799-2.348z"
        fill="#feac01" data-original="#feac01"></path></g><g><path d="m109.675 218.274c-.299-2.285-.469-4.61-.469-6.975 0-28.956 23.086-52.529 51.931-53.507l-25.049-10.581 17.101-20.569c-42.596 4.861-75.789 40.969-75.789 84.657 0 5.86.598 11.583 1.734 17.114l22.801 15.1z" fill="#7676ff" ></path>
    <path
        d="m86.575 210.826c0-35.213 24.317-64.876 57.11-73.226l9.503-11.431c-42.596 4.861-75.789 40.969-75.789 84.657 0 5.86.598 11.584 1.735 17.114l11.655 7.719c-2.727-7.782-4.214-16.137-4.214-24.833z"
        fill="#5a5aff" data-original="#5a5aff"></path></g><g><path d="m194.751 252.039c-11.01 7.39-22.304 12.812-31.754 12.812-27.331 0-49.886-20.299-53.322-46.578l-7.741 25.238-22.801-15.1c7.98 38.817 42.55 68.106 83.863 68.106 14.486 0 30.337-5.676 48.021-17.244l8.164-22.829z" fill="#ffce03" data-original="#ffce03"></path>
    <path
        d="m90.789 235.658-11.655-7.719c7.98 38.817 42.55 68.106 83.863 68.106 14.486 0 30.337-5.676 48.022-17.244l5.861-16.39c-20.939 16.117-38.812 23.988-54.394 23.988-33.123 0-61.355-21.232-71.697-50.741z"
        fill="#feac01" data-original="#feac01"></path></g><g><path d="m306.792 188.625c16.372-14.606 38.286-30.88 54.663-30.88 9.361 0 18.16 2.384 25.826 6.571l24.001-1.29-5.436-24.567c-12.951-7.853-28.15-12.38-44.392-12.38-20.408 0-43.52 11.251-70.656 34.394-.173.148-.341.295-.513.442l27.042 3.01z" fill="#ffce03" data-original="#ffce03"></path>
    <path
        d="m361.456 157.272c9.36 0 18.16 2.385 25.826 6.571l13.814-.742c-6.114-5.143-11.703-9.032-11.703-9.032-8.652-4.222-18.251-6.443-27.937-6.443-8.972 0-19.5 3.634-31.479 10.846l-15.702 12.138-5.313 12.457 3.798-.088c15.465-13.022 34.237-25.707 48.696-25.707z"
        fill="#feac01" data-original="#feac01"></path></g><g><path d="m405.847 138.459 5.436 24.567-24.001 1.29c16.664 9.099 27.964 26.725 27.964 46.983 0 6.488-1.16 12.707-3.283 18.462l4.975 22.792 23.92-9.433c3.992-9.837 6.196-20.577 6.196-31.822-.001-30.82-16.521-57.871-41.207-72.839z" fill="#7676ff" data-original="#7676ff"></path>
    <path
        d="m424.932 210.826c0-.593-.008-1.184-.025-1.774-.491-17.473-9.157-33.719-23.021-44.438l-1.881-1.454-9.375.504.622 2.584c14.46 9.599 23.993 25.977 23.993 44.578 0 6.488-1.16 12.707-3.284 18.462l2.958 13.553 7.081-12.983c1.947-6.14 2.932-12.528 2.932-19.032z"
        fill="#5a5aff" data-original="#5a5aff"></path></g><g><path d="m411.963 229.761 4.975 22.792 23.92-9.433c-12.69 31.273-43.497 53.398-79.402 53.398-13.966 0-29.198-5.272-46.12-16.015l-6.404-24.48 23.556-2.161c10.112 6.441 20.313 10.989 28.967 10.989 23.191.001 42.953-14.61 50.508-35.09z" fill="#ff5a96" data-original="#ff5a96"></path>
    <path
        d="m361.456 274.025c.633 0 1.264-.009 1.893-.028 20.212-.605 38.73-11.438 49.787-28.3l1.807-2.756-2.175-9.965-2.489.343c-8.538 18.338-27.186 31.06-48.823 31.06-8.654 0-18.855-4.548-28.967-10.989l-13.166 1.208 10.813 8.695c11.976 7.217 22.247 10.732 31.32 10.732z"
        fill="#ff2488" data-original="#ff2488"></path></g><g><path d="m332.488 253.389c-24.601-15.67-48.678-42.564-48.678-42.564l-21.439-22.999.15-.159c-1.794-1.914-4.546-4.789-7.91-8.165l-.003-.003c-1.891-1.898-3.974-3.953-6.193-6.088l-27.416.179 7.628 24.823c-.003-.003-.006-.005-.008-.008 7.156 7.007 11.775 12.143 12.007 12.401l.066-.07c8.95 9.405 21.535 23.516 21.535 23.516 4.447 4.777 15.283 16.065 28.573 27.399 8.566 7.306 16.731 13.423 24.536 18.379l-6.404-24.48z" fill="#7676ff" data-original="#7676ff"></path>
    <path
        d="m251.322 187.481.057.057.003.004c3.364 3.376 6.117 6.252 7.91 8.165l-.15.159 21.439 22.999s18.04 20.144 38.844 35.724l13.064-1.199c-24.602-15.67-48.679-42.564-48.679-42.564l-21.439-22.999.15-.159c-1.793-1.914-4.546-4.789-7.91-8.165l-.003-.004c-1.891-1.898-3.974-3.953-6.193-6.088l-13.356.088 4.325 3.395c4.187 3.288 8.181 6.818 11.938 10.587z"
        fill="#5a5aff" data-original="#5a5aff"></path></g></g></g></g><g><path d="m125.056 231.704s-2.009-2.792-5.581-5.583c-5.364 10.896-20.765 11.039-20.765 11.039-29.794-3.453-17.249 41.442-17.249 41.442 11.577 30.821 12.884 52.807 10.348 68.054-3.602 21.655-25.277 35.727-46.119 28.901-30.413-9.961-7.892-49.548-7.892-49.548-30.491-29.198 3.206-53.058 3.206-53.058-7.213-26.058-.91-38.869-.91-38.869 19.056-48.543 64.439-34.723 76.604-25.348 0 0 43.789.478 28.061 76.775 0 0 25.852 19.779 3.047 48.349l-35.811 12.375-18.492-76.935" fill="#333333" data-original="#333333"></path>
    <g><g><path d="m117.184 299.945-.761-13.144-36.516-27.886.051 38.789c.006 4.882-3.256 9.187-7.97 10.42-13.603 3.556-25.648 9.781-33.874 14.773-8.253 5.008-14.867 12.287-19.096 20.96-5.905 12.111-13.614 32.754-17.303 62.979-1.553 12.722-1.757 22.911-1.173 31.049 1.217 16.955 15.228 30.115 32.189 30.115h204.801c-2.775-7.648-39.579-117.206-54.07-131.022-11.572-11.033-44.44-22.665-58.889-27.415-4.203-1.381-7.132-5.193-7.389-9.618z" fill="#00d5fe" data-original="#00d5fe"></path><path
        d="m12.646 437.885c-.584-8.138-.38-18.328 1.173-31.049 3.689-30.225 11.398-50.868 17.303-62.979 4.229-8.673 10.843-15.952 19.096-20.96 8.226-4.992 20.271-11.217 33.874-14.773 4.713-1.232 7.976-5.537 7.969-10.42l-.039-29.537-12.116-9.252.051 38.789c.007 4.882-3.256 9.187-7.969 10.42-13.603 3.556-25.648 9.781-33.874 14.773-8.253 5.008-14.867 12.287-19.096 20.96-5.905 12.111-13.614 32.754-17.303 62.979-1.553 12.722-1.757 22.911-1.173 31.049 1.217 16.955 15.229 30.115 32.189 30.115h12.103c-16.96 0-30.971-13.16-32.188-30.115z"
        fill="#0db9d6" data-original="#0db9d6"></path><path
        d="m138.141 314.242c-5.232-1.925-9.966-3.529-13.567-4.704-4.205-1.373-7.135-5.194-7.392-9.619l-.76-13.117-36.516-27.886.051 38.79c.006 4.892-3.274 9.189-7.996 10.426-4.465 1.169-8.762 2.625-12.811 4.23 11.048 9.375 46.431 34.319 78.991 1.88z"
        fill="#ffa099" data-original="#ffa099"></path><g fill="#0db9d6"><path d="m178.932 445.855c-.077 0-.154-.004-.232-.013l-122.5-14.16c-1.747-.14-1.834-1.782-1.742-2.323.079-.462 7.854-46.423 5.35-65.61-.143-1.095.629-2.099 1.725-2.242 1.095-.139 2.099.629 2.242 1.725 2.301 17.623-3.503 55.341-5.028 64.718l120.412 13.918c1.098.127 1.884 1.119 1.757 2.216-.118 1.02-.983 1.771-1.984 1.771z" fill="#0db9d6" data-original="#0db9d6"></path>
        <path
            d="m164.468 425.664c-.967 0-1.817-.704-1.973-1.689-2.863-18.181 1.28-50.084 2.619-59.429.156-1.094 1.174-1.852 2.263-1.696 1.094.157 1.854 1.17 1.696 2.264-1.318 9.205-5.403 40.61-2.627 58.24.172 1.091-.573 2.115-1.664 2.287-.105.015-.211.023-.314.023z"
            fill="#0db9d6" data-original="#0db9d6"></path></g></g>
        <path d="m140.506 468 17.586-81.916h113.631l-16.268 81.916z" fill="#ffce03"
            data-original="#ffce03"></path>
        <g><path d="m169.83 386.084h-11.739l-17.585 81.916h114.949l2.203-11.095h-65.588c-19.269 0-33.629-17.77-29.585-36.61z" fill="#feac01" data-original="#feac01"></path></g>
        <g><g><g><path d="m232.189 409.325c-2.509-2.402-6.436-2.4-8.942 0-.598.572-1.549.552-2.12-.046-.573-.599-.553-1.548.046-2.121 3.671-3.515 9.422-3.514 13.091 0 .599.573.636 1.539.046 2.121-.779.768-1.831.324-2.121.046z" fill="#333333" data-original="#333333"></path><ellipse
            cx="228.289" cy="423.629" fill="#001445" rx="3.24" ry="3.297"
            data-original="#001445"></ellipse></g><g><path d="m200.824 409.741c-.373 0-.747-.138-1.037-.417-2.508-2.402-6.435-2.4-8.942 0-.597.572-1.549.552-2.12-.046-.573-.599-.553-1.548.046-2.121 3.671-3.515 9.41-3.501 13.091 0 .951.906.343 2.391-1.038 2.584z" fill="#333333" data-original="#333333"></path>
            <path
                d="m228.289 413.886c-4.346 0-8.022 2.949-9.201 6.977-4.278-2.738-9.723-2.738-14.001-.001-1.179-4.027-4.854-6.976-9.2-6.976-5.294 0-9.601 4.371-9.601 9.744s4.307 9.744 9.601 9.744c5.06 0 9.208-3.996 9.565-9.04 3.823-3.356 9.448-3.356 13.271 0 .358 5.044 4.505 9.04 9.565 9.04 5.294 0 9.601-4.371 9.601-9.744s-4.306-9.744-9.6-9.744zm-32.402 16.487c-3.64 0-6.601-3.025-6.601-6.744s2.961-6.744 6.601-6.744 6.601 3.025 6.601 6.744-2.962 6.744-6.601 6.744zm32.402 0c-3.64 0-6.601-3.025-6.601-6.744s2.961-6.744 6.601-6.744 6.601 3.025 6.601 6.744-2.961 6.744-6.601 6.744z"
                fill="#333333" data-original="#333333"></path>
            <ellipse cx="195.887" cy="423.629" fill="#001445" rx="3.24" ry="3.297"
                data-original="#001445"></ellipse></g></g>
            <g><path d="m212.088 437.757c-5.104 0-9.241 2.127-9.241 3.785 0 5.194 4.137 9.405 9.241 9.405s9.241-4.211 9.241-9.405c0-1.658-4.137-3.785-9.241-3.785z" fill="#333333" data-original="#333333"></path>
                <path
                    d="m212.088 450.947c3.392 0 6.348-1.865 7.956-4.636-1.608-2.771-4.565-4.635-7.956-4.635s-6.348 1.863-7.956 4.635c1.608 2.771 4.564 4.636 7.956 4.636z"
                    fill="#ff2488" data-original="#ff2488"></path></g>
            <g fill="#fff"><ellipse cx="192.646" cy="441.538" rx="5.184" ry="3.297" fill="#ffffff" data-original="#ffffff"></ellipse>
                <ellipse cx="231.529" cy="441.538" rx="5.184" ry="3.297" fill="#ffffff"
                    data-original="#ffffff"></ellipse></g></g></g>
    <path
        d="m67.871 252.384s5.313-7.309 4.541-17.255c-.373-4.803 2.451-9.01 6.848-10.954 31.45-13.907 45.795 7.53 45.795 7.53 3.205 17.416 7.823 58.27-19.358 58.377-15.766.062-28.26-8.448-35-17.85 0 0-22.685 2.696-21.371-17.283s18.545-2.565 18.545-2.565z"
        fill="#ffc5b7" data-original="#ffc5b7"></path>
    <path
        d="m125.056 231.704s-2.009-2.792-5.581-5.583c-5.364 10.896-20.765 11.039-20.765 11.039-29.794-3.453-17.249 41.442-17.249 41.442 11.577 30.821 12.884 52.807 10.348 68.054-3.602 21.655-25.277 35.727-46.119 28.901-30.413-9.961-7.892-49.548-7.892-49.548-30.491-29.198 3.206-53.058 3.206-53.058-7.213-26.058-.91-38.869-.91-38.869 19.056-48.543 64.439-34.723 76.604-25.348"
        fill="#333333" data-original="#333333"></path>
    <path
        d="m49.902 326.008c-30.491-29.198 3.206-53.058 3.206-53.058-7.213-26.058-.91-38.869-.91-38.869 9.29-23.664 24.835-32.504 39.739-34.268-17.905-2.003-39.976 4.042-51.843 34.268 0 0-6.303 12.811.91 38.869 0 0-33.696 23.86-3.206 53.058 0 0-22.521 39.586 7.892 49.548 5.682 1.861 11.423 2.159 16.846 1.183-1.58-.283-3.164-.666-4.742-1.183-30.413-9.961-7.892-49.548-7.892-49.548z"
        fill="#1e1e1e" data-original="#1e1e1e"></path></g><g><path d="m110.621 64.386h-102.939v76.655l15.995-17.818h86.944z" fill="#00d5fe" data-original="#00d5fe"></path>
    <path
        d="m110.621 111.119h-70.664c-11.141 0-20.172-9.032-20.172-20.172v-26.561h-12.103v76.655l15.996-17.818h86.944v-12.104z"
        fill="#0db9d6" data-original="#0db9d6"></path>
    <g fill="#fff"><path d="m44.032 106.742-15.352-11.328c-1.596-1.609-.511-2.842 0-3.219l15.353-11.328c.89-.657 2.141-.466 2.797.422.656.889.467 2.141-.422 2.797l-13.172 9.719 13.172 9.719c.889.656 1.078 1.908.422 2.797-.393.531-1.455 1.195-2.798.421z" fill="#ffffff" data-original="#ffffff"></path>
        <path
            d="m71.474 106.32c-.656-.889-.467-2.141.422-2.797l13.172-9.719-13.172-9.719c-.889-.656-1.078-1.908-.422-2.797s1.907-1.078 2.797-.422l15.353 11.328c.511.377 1.21 2.097 0 3.219l-15.353 11.329c-1.396.758-2.405.11-2.797-.422z"
            fill="#ffffff" data-original="#ffffff"></path>
        <path
            d="m55.988 107.153c-1.075-.255-1.74-1.333-1.485-2.408l5.404-22.805c.255-1.076 1.335-1.738 2.407-1.485 1.075.255 1.74 1.333 1.485 2.408l-5.404 22.805c-.624 1.957-2.251 1.521-2.407 1.485z"
            fill="#ffffff" data-original="#ffffff"></path></g></g><g><path d="m430.799 328.878h-102.94v76.655l15.996-17.818h86.944z" fill="#90d628" data-original="#90d628"></path>
    <path
        d="m338.132 347.111.005-18.233h-10.277v76.655l15.996-17.818h86.944v-10.338h-62.41c-16.714 0-30.263-13.552-30.258-30.266z"
        fill="#6ca42e" data-original="#6ca42e"></path>
    <g fill="#fff" opacity=".96"><path d="m366.202 377.28h-2.208c-3.964 0-7.188-3.22-7.188-7.178v-6.662l-3.737-3.729c-1.193-1.295-.376-2.456 0-2.832l3.737-3.728v-6.662c0-3.958 3.225-7.178 7.188-7.178h2.208c1.104 0 2 .896 2 2s-.896 2-2 2h-2.208c-1.758 0-3.188 1.425-3.188 3.178v7.491c0 .531-.211 1.041-.587 1.416l-2.905 2.898 2.905 2.899c.376.375.587.884.587 1.416v7.491c0 1.752 1.431 3.178 3.188 3.178h2.208c1.104 0 2 .896 2 2s-.895 2.002-2 2.002z" fill="#ffffff" data-original="#ffffff"></path>
        <path
            d="m394.664 377.28h-2.208c-1.104 0-2-.896-2-2s.896-2 2-2h2.208c1.758 0 3.188-1.425 3.188-3.178v-7.491c0-.531.211-1.041.587-1.416l2.905-2.899-2.905-2.898c-.376-.375-.587-.885-.587-1.416v-7.491c0-1.752-1.431-3.178-3.188-3.178h-2.208c-1.104 0-2-.896-2-2s.896-2 2-2h2.208c3.964 0 7.188 3.22 7.188 7.178v6.662l3.737 3.728c.376.375.91 1.682 0 2.832l-3.737 3.729v6.662c.001 3.957-3.224 7.176-7.188 7.176z"
            fill="#ffffff" data-original="#ffffff"></path>
        <ellipse cx="379.329" cy="358.297" rx="3.363" ry="3.323" fill="#ffffff"
            data-original="#ffffff"></ellipse>
        <ellipse cx="367.457" cy="358.297" rx="2.615" ry="2.584" fill="#ffffff"
            data-original="#ffffff"></ellipse>
        <ellipse cx="391.201" cy="358.297" rx="2.615" ry="2.584" fill="#ffffff"
            data-original="#ffffff"></ellipse></g></g></g></g></svg>